*basic troll info


*add adjective lists for descriptions

*level range
&1&00

*type
&btroll&

*faction
&none&00

*attributes
&1/2/2/1/1/2/1/1/1/2&00

*items
&2101&00

*weapons
&0001/0<01/0?01&00

*armor
&1101&00

*spells
&&00

*type specials
&frenzy&00


*level range 11-20

*faction

*health, spirit, and points
