*your guy's data


*location
&0/0&00

*name, faction
&Main/Main/none&00

*buffs
&&00

*attributes
&2/2/2/2/2/2/2/2/2/2&00

*items
&2003&00

*weapons
&0001&00

*armor
&1001/1101/1201/1301/1401&00

*spells
&&00

*accomplishments
&&00